Machine Learning Workflow: SVM with Polynomial Kernel (Heart Data)
…
# Load the `Heart.csv` data.
Heart <- read_csv("../data/Heart.csv") %>% 
  # first column is patient ID, which we don't need
  select(-1) %>%
  # RestECG is categorical with value 0, 1, 2
  mutate(RestECG = as.character(RestECG)) %>%
  print(width = Inf)

# A tibble: 303 × 14
     Age   Sex ChestPain    RestBP  Chol   Fbs RestECG MaxHR ExAng Oldpeak Slope
   <dbl> <dbl> <chr>         <dbl> <dbl> <dbl> <chr>   <dbl> <dbl>   <dbl> <dbl>
 1    63     1 typical         145   233     1 2         150     0     2.3     3
 2    67     1 asymptomatic    160   286     0 2         108     1     1.5     2
 3    67     1 asymptomatic    120   229     0 2         129     1     2.6     2
 4    37     1 nonanginal      130   250     0 0         187     0     3.5     3
 5    41     0 nontypical      130   204     0 2         172     0     1.4     1
 6    56     1 nontypical      120   236     0 0         178     0     0.8     1
 7    62     0 asymptomatic    140   268     0 2         160     0     3.6     3
 8    57     0 asymptomatic    120   354     0 0         163     1     0.6     1
 9    63     1 asymptomatic    130   254     0 2         147     0     1.4     2
10    53     1 asymptomatic    140   203     1 2         155     1     3.1     3
      Ca Thal       AHD  
   <dbl> <chr>      <chr>
 1     0 fixed      No   
 2     3 normal     Yes  
 3     2 reversable Yes  
 4     0 normal     No   
 5     0 normal     No   
 6     0 normal     No   
 7     2 normal     Yes  
 8     0 normal     No   
 9     1 reversable Yes  
10     0 reversable Yes  
# ℹ 293 more rows
…
7 Tuning grid

R

Here we tune the cost and radial scale rbf_sigma.

param_grid <- grid_regular(
  cost(range = c(-3, 2)),
  degree(range = c(1, 5)),
  #scale_factor(range = c(-1, 1)),
  levels = c(5)
  )
param_grid

# A tibble: 25 × 2
    cost degree
   <dbl>  <dbl>
 1 0.125      1
 2 0.297      1
 3 0.707      1
 4 1.68       1
 5 4          1
 6 0.125      2
 7 0.297      2
 8 0.707      2
 9 1.68       2
10 4          2
# ℹ 15 more rows
…
Visualize CV results:

svm_fit %>%
  collect_metrics() %>%
  print(width = Inf) %>%
  filter(.metric == "roc_auc" ) %>%
  ggplot(mapping = aes(x = degree, y = mean)) +
  geom_point() +
  geom_line() +
  labs(x = "Cost", y = "CV AUC") +
  scale_x_log10()

# A tibble: 50 × 8
    cost degree .metric  .estimator  mean     n std_err .config              
   <dbl>  <dbl> <chr>    <chr>      <dbl> <int>   <dbl> <chr>                
 1 0.125      1 accuracy binary     0.828     5 0.0187  Preprocessor1_Model01
 2 0.125      1 roc_auc  binary     0.911     5 0.00945 Preprocessor1_Model01
 3 0.297      1 accuracy binary     0.833     5 0.0203  Preprocessor1_Model02
 4 0.297      1 roc_auc  binary     0.912     5 0.0124  Preprocessor1_Model02
 5 0.707      1 accuracy binary     0.833     5 0.0254  Preprocessor1_Model03
 6 0.707      1 roc_auc  binary     0.917     5 0.0110  Preprocessor1_Model03
 7 1.68       1 accuracy binary     0.824     5 0.0301  Preprocessor1_Model04
 8 1.68       1 roc_auc  binary     0.915     5 0.0118  Preprocessor1_Model04
 9 4          1 accuracy binary     0.833     5 0.0273  Preprocessor1_Model05
10 4          1 roc_auc  binary     0.917     5 0.0119  Preprocessor1_Model05
# ℹ 40 more rows
…
