Statistical Learning (ISL 2)
…
Figure 2: Income increases nonlinearly with seniority.

library(tidyverse)

# Import Income2 data
income <- read_csv("../data/Income2.csv", col_select = Education:Income) %>% 
  print(width = Inf)

# A tibble: 30 × 3
   Education Seniority Income
       <dbl>     <dbl>  <dbl>
 1      21.6     113.    99.9
 2      18.3     119.    92.6
 3      12.1     101.    34.7
 4      17.0     188.    78.7
 5      19.9      20     68.0
 6      18.3      26.2   71.5
 7      19.9     150.    88.0
 8      21.2      82.1   79.8
 9      20.3      88.3   90.0
10      10       113.    45.7
# … with 20 more rows
…
