Machine Learning Workflow: Boosting for Prediction
…
Here we tune the number of trees n_estimators and the learning rate learning_rate.

R
Python

Here we tune the number of trees trees and the number of features to use in each split mtry.

param_grid <- grid_regular(
  tree_depth(range = c(1L, 4L)),
  learn_rate(range = c(-3, -0.5), trans = log10_trans()),
  levels = c(4, 10)
  )
param_grid

# A tibble: 40 × 2
   tree_depth learn_rate
        <int>      <dbl>
 1          1    0.001  
 2          2    0.001  
 3          3    0.001  
 4          4    0.001  
 5          1    0.00190
 6          2    0.00190
 7          3    0.00190
 8          4    0.00190
 9          1    0.00359
10          2    0.00359
# ℹ 30 more rows
…
Visualize CV results:

gb_fit %>%
  collect_metrics() %>%
  print(width = Inf) %>%
  filter(.metric == "rmse") %>%
  ggplot(mapping = aes(x = learn_rate, y = mean, color = factor(tree_depth))) +
  geom_point() +
  geom_line() +
  labs(x = "Learning Rate", y = "CV AUC") +
  scale_x_log10()

# A tibble: 80 × 8
   tree_depth learn_rate .metric .estimator    mean     n std_err
        <int>      <dbl> <chr>   <chr>        <dbl> <int>   <dbl>
 1          1    0.001   rmse    standard   446.        5 61.7   
 2          1    0.001   rsq     standard     0.351     5  0.0801
 3          2    0.001   rmse    standard   433.        5 57.7   
 4          2    0.001   rsq     standard     0.352     5  0.0844
 5          3    0.001   rmse    standard   426.        5 58.8   
 6          3    0.001   rsq     standard     0.383     5  0.0905
 7          4    0.001   rmse    standard   432.        5 61.8   
 8          4    0.001   rsq     standard     0.345     5  0.0619
 9          1    0.00190 rmse    standard   395.        5 51.2   
10          1    0.00190 rsq     standard     0.368     5  0.0868
   .config              
   <chr>                
 1 Preprocessor1_Model01
 2 Preprocessor1_Model01
 3 Preprocessor1_Model02
 4 Preprocessor1_Model02
 5 Preprocessor1_Model03
 6 Preprocessor1_Model03
 7 Preprocessor1_Model04
 8 Preprocessor1_Model04
 9 Preprocessor1_Model05
10 Preprocessor1_Model05
# ℹ 70 more rows
…
