Boosting Tree for Classfication (ISL 8)
…
# Load the `Heart.csv` data.
Heart <- read_csv("../data/Heart.csv") %>% 
  # first column is patient ID, which we don't need
  select(-1) %>%
  # RestECG is categorical with value 0, 1, 2
  mutate(RestECG = as.character(RestECG)) %>%
  print(width = Inf)

# A tibble: 303 × 14
     Age   Sex ChestPain    RestBP  Chol   Fbs RestECG MaxHR ExAng Oldpeak Slope
   <dbl> <dbl> <chr>         <dbl> <dbl> <dbl> <chr>   <dbl> <dbl>   <dbl> <dbl>
 1    63     1 typical         145   233     1 2         150     0     2.3     3
 2    67     1 asymptomatic    160   286     0 2         108     1     1.5     2
 3    67     1 asymptomatic    120   229     0 2         129     1     2.6     2
 4    37     1 nonanginal      130   250     0 0         187     0     3.5     3
 5    41     0 nontypical      130   204     0 2         172     0     1.4     1
 6    56     1 nontypical      120   236     0 0         178     0     0.8     1
 7    62     0 asymptomatic    140   268     0 2         160     0     3.6     3
 8    57     0 asymptomatic    120   354     0 0         163     1     0.6     1
 9    63     1 asymptomatic    130   254     0 2         147     0     1.4     2
10    53     1 asymptomatic    140   203     1 2         155     1     3.1     3
      Ca Thal       AHD  
   <dbl> <chr>      <chr>
 1     0 fixed      No   
 2     3 normal     Yes  
 3     2 reversable Yes  
 4     0 normal     No   
 5     0 normal     No   
 6     0 normal     No   
 7     2 normal     Yes  
 8     0 normal     No   
 9     1 reversable Yes  
10     0 reversable Yes  
# ℹ 293 more rows
…
Here we tune the number of trees n_estimators and the learning rate learning_rate.

R
Python

Here we tune the number of trees trees and the number of features to use in each split mtry.

param_grid <- grid_regular(
  tree_depth(range = c(1L, 3L)),
  learn_rate(range = c(-5, 2), trans = log10_trans()),
  levels = c(3, 10)
  )
param_grid

# A tibble: 30 × 2
   tree_depth learn_rate
        <int>      <dbl>
 1          1  0.00001  
 2          2  0.00001  
 3          3  0.00001  
 4          1  0.0000599
 5          2  0.0000599
 6          3  0.0000599
 7          1  0.000359 
 8          2  0.000359 
 9          3  0.000359 
10          1  0.00215  
# ℹ 20 more rows
…
Visualize CV results:

gb_fit %>%
  collect_metrics() %>%
  print(width = Inf) %>%
  filter(.metric == "roc_auc") %>%
  mutate(tree_depth = as.factor(tree_depth)) %>%
  ggplot(mapping = aes(x = learn_rate, y = mean, color = tree_depth)) +
  geom_point() +
  geom_line() +
  labs(x = "Learning Rate", y = "CV AUC") +
  scale_x_log10()

# A tibble: 60 × 8
   tree_depth learn_rate .metric  .estimator  mean     n std_err
        <int>      <dbl> <chr>    <chr>      <dbl> <int>   <dbl>
 1          1  0.00001   accuracy binary     0.709     5  0.0231
 2          1  0.00001   roc_auc  binary     0.697     5  0.0225
 3          2  0.00001   accuracy binary     0.714     5  0.0289
 4          2  0.00001   roc_auc  binary     0.791     5  0.0303
 5          3  0.00001   accuracy binary     0.771     5  0.0269
 6          3  0.00001   roc_auc  binary     0.805     5  0.0353
 7          1  0.0000599 accuracy binary     0.709     5  0.0231
 8          1  0.0000599 roc_auc  binary     0.697     5  0.0225
 9          2  0.0000599 accuracy binary     0.723     5  0.0316
10          2  0.0000599 roc_auc  binary     0.800     5  0.0338
   .config              
   <chr>                
 1 Preprocessor1_Model01
 2 Preprocessor1_Model01
 3 Preprocessor1_Model02
 4 Preprocessor1_Model02
 5 Preprocessor1_Model03
 6 Preprocessor1_Model03
 7 Preprocessor1_Model04
 8 Preprocessor1_Model04
 9 Preprocessor1_Model05
10 Preprocessor1_Model05
# ℹ 50 more rows
…
