Machine Learning Workflow: Classification Trees
…
Visualize CV results:

tree_fit %>%
  collect_metrics() %>%
  print(width = Inf) %>%
  filter(.metric == "roc_auc") %>%
  mutate(tree_depth = as.factor(tree_depth)) %>%
  ggplot(mapping = aes(x = cost_complexity, y = mean, color = tree_depth)) +
  geom_point() + 
  geom_line() + 
  labs(x = "cost_complexity", y = "CV ROC AUC", color = "tree_depth") 

# A tibble: 1,000 × 8
   cost_complexity tree_depth .metric  .estimator  mean     n std_err
             <dbl>      <int> <chr>    <chr>      <dbl> <int>   <dbl>
 1        1   e-10          1 accuracy binary     0.696     5  0.0108
 2        1   e-10          1 roc_auc  binary     0.689     5  0.0143
 3        1.23e-10          1 accuracy binary     0.696     5  0.0108
 4        1.23e-10          1 roc_auc  binary     0.689     5  0.0143
 5        1.52e-10          1 accuracy binary     0.696     5  0.0108
 6        1.52e-10          1 roc_auc  binary     0.689     5  0.0143
 7        1.87e-10          1 accuracy binary     0.696     5  0.0108
 8        1.87e-10          1 roc_auc  binary     0.689     5  0.0143
 9        2.31e-10          1 accuracy binary     0.696     5  0.0108
10        2.31e-10          1 roc_auc  binary     0.689     5  0.0143
   .config               
   <chr>                 
 1 Preprocessor1_Model001
 2 Preprocessor1_Model001
 3 Preprocessor1_Model002
 4 Preprocessor1_Model002
 5 Preprocessor1_Model003
 6 Preprocessor1_Model003
 7 Preprocessor1_Model004
 8 Preprocessor1_Model004
 9 Preprocessor1_Model005
10 Preprocessor1_Model005
# ℹ 990 more rows
…
